<?xml version="1.0" encoding="UTF-8" standalone="no"?>
<!-- Created with Inkscape (http://www.inkscape.org/) -->

<svg
   xmlns:dc="http://purl.org/dc/elements/1.1/"
   xmlns:cc="http://creativecommons.org/ns#"
   xmlns:rdf="http://www.w3.org/1999/02/22-rdf-syntax-ns#"
   xmlns:svg="http://www.w3.org/2000/svg"
   xmlns="http://www.w3.org/2000/svg"
   xmlns:xlink="http://www.w3.org/1999/xlink"
   xmlns:sodipodi="http://sodipodi.sourceforge.net/DTD/sodipodi-0.dtd"
   xmlns:inkscape="http://www.inkscape.org/namespaces/inkscape"
   width="512"
   height="512"
   viewBox="0 0 135.46666 135.46667"
   version="1.1"
   id="svg8"
   inkscape:export-filename="/home/macramole/bitmap2.png"
   inkscape:export-xdpi="96"
   inkscape:export-ydpi="96"
   inkscape:version="0.92.3 (2405546, 2018-03-11)"
   sodipodi:docname="icon.svg">
  <defs
     id="defs2" />
  <sodipodi:namedview
     id="base"
     pagecolor="#ffffff"
     bordercolor="#666666"
     borderopacity="1.0"
     inkscape:pageopacity="0"
     inkscape:pageshadow="2"
     inkscape:zoom="0.45254834"
     inkscape:cx="57.439439"
     inkscape:cy="464.28244"
     inkscape:document-units="mm"
     inkscape:current-layer="layer1"
     showgrid="false"
     units="px"
     inkscape:window-width="1920"
     inkscape:window-height="1020"
     inkscape:window-x="0"
     inkscape:window-y="32"
     inkscape:window-maximized="1"
     fit-margin-top="0"
     fit-margin-left="0"
     fit-margin-right="0"
     fit-margin-bottom="0" />
  <metadata
     id="metadata5">
    <rdf:RDF>
      <cc:Work
         rdf:about="">
        <dc:format>image/svg+xml</dc:format>
        <dc:type
           rdf:resource="http://purl.org/dc/dcmitype/StillImage" />
        <dc:title></dc:title>
      </cc:Work>
    </rdf:RDF>
  </metadata>
  <g
     inkscape:label="Layer 1"
     inkscape:groupmode="layer"
     id="layer1"
     transform="translate(-4.0531158e-6,-318.51393)">
    <rect
       style="opacity:1;fill:#242424;fill-opacity:1;stroke:none;stroke-width:0.26458338;stroke-miterlimit:4;stroke-dasharray:none;stroke-opacity:1"
       id="rect815"
       width="135.20209"
       height="135.20207"
       x="0.13228963"
       y="161.66562"
       ry="14.668151" />
    <image
       sodipodi:absref="/home/macramole/Pictures/Screenshot from 2019-08-09 16-39-21.png"
       y="-1059.5649"
       x="2533.3008"
       id="image879"
       xlink:href="file:///home/macramole/Pictures/Screenshot%20from%202019-08-09%2016-39-21.png"
       preserveAspectRatio="none"
       height="177.00626"
       width="303.74167" />
    <circle
       style="opacity:1;fill:#ffff99;fill-opacity:1;stroke:none;stroke-width:0.26458332;stroke-miterlimit:4;stroke-dasharray:none;stroke-opacity:1"
       id="path884"
       cx="-103.56548"
       cy="10.116064"
       r="4.1577382" />
    <circle
       r="4.1577382"
       cy="6.3363094"
       cx="-67.279762"
       id="circle886"
       style="opacity:1;fill:#1f72ab;fill-opacity:1;stroke:none;stroke-width:0.26458332;stroke-miterlimit:4;stroke-dasharray:none;stroke-opacity:1" />
    <circle
       style="opacity:1;fill:#ff7f00;fill-opacity:1;stroke:none;stroke-width:0.26458332;stroke-miterlimit:4;stroke-dasharray:none;stroke-opacity:1"
       id="circle888"
       cx="-89.958336"
       cy="-5.7589283"
       r="4.1577382" />
    <circle
       r="4.1577382"
       cy="124.48984"
       cx="-34.729454"
       id="circle890"
       style="opacity:1;fill:#9e1213;fill-opacity:1;stroke:none;stroke-width:0.26458332;stroke-miterlimit:4;stroke-dasharray:none;stroke-opacity:1" />
    <circle
       r="4.1577382"
       cy="195.05638"
       cx="69.458298"
       id="circle892"
       style="opacity:1;fill:#ffff99;fill-opacity:1;stroke:none;stroke-width:0.26458332;stroke-miterlimit:4;stroke-dasharray:none;stroke-opacity:1" />
    <circle
       style="opacity:1;fill:#1f72ab;fill-opacity:1;stroke:none;stroke-width:0.26458332;stroke-miterlimit:4;stroke-dasharray:none;stroke-opacity:1"
       id="circle894"
       cx="30.629353"
       cy="256.39932"
       r="4.1577382" />
    <circle
       r="4.1577382"
       cy="206.99879"
       cx="59.143078"
       id="circle896"
       style="opacity:1;fill:#ff7f00;fill-opacity:1;stroke:none;stroke-width:0.26458332;stroke-miterlimit:4;stroke-dasharray:none;stroke-opacity:1" />
    <circle
       style="opacity:1;fill:#9e1213;fill-opacity:1;stroke:none;stroke-width:0.26458332;stroke-miterlimit:4;stroke-dasharray:none;stroke-opacity:1"
       id="circle898"
       cx="331.10715"
       cy="150.72322"
       r="4.1577382" />
    <circle
       style="opacity:1;fill:#ffff99;fill-opacity:1;stroke:none;stroke-width:0.26458332;stroke-miterlimit:4;stroke-dasharray:none;stroke-opacity:1"
       id="circle900"
       cx="78.151764"
       cy="205.63972"
       r="4.1577382" />
    <circle
       r="4.1577382"
       cy="267.69601"
       cx="43.663967"
       id="circle902"
       style="opacity:1;fill:#1f72ab;fill-opacity:1;stroke:none;stroke-width:0.26458332;stroke-miterlimit:4;stroke-dasharray:none;stroke-opacity:1" />
    <circle
       style="opacity:1;fill:#ff7f00;fill-opacity:1;stroke:none;stroke-width:0.26458332;stroke-miterlimit:4;stroke-dasharray:none;stroke-opacity:1"
       id="circle904"
       cx="45.157955"
       cy="207.75475"
       r="4.1577382" />
    <circle
       r="4.1577382"
       cy="163.95238"
       cx="331.8631"
       id="circle906"
       style="opacity:1;fill:#9e1213;fill-opacity:1;stroke:none;stroke-width:0.26458332;stroke-miterlimit:4;stroke-dasharray:none;stroke-opacity:1" />
    <circle
       r="4.1577382"
       cy="178.80339"
       cx="67.190437"
       id="circle908"
       style="opacity:1;fill:#ffff99;fill-opacity:1;stroke:none;stroke-width:0.26458332;stroke-miterlimit:4;stroke-dasharray:none;stroke-opacity:1" />
    <circle
       style="opacity:1;fill:#1f72ab;fill-opacity:1;stroke:none;stroke-width:0.26458332;stroke-miterlimit:4;stroke-dasharray:none;stroke-opacity:1"
       id="circle910"
       cx="30.267109"
       cy="243.67784"
       r="4.1577382" />
    <circle
       r="4.1577382"
       cy="221.73985"
       cx="45.535923"
       id="circle912"
       style="opacity:1;fill:#ff7f00;fill-opacity:1;stroke:none;stroke-width:0.26458332;stroke-miterlimit:4;stroke-dasharray:none;stroke-opacity:1" />
    <circle
       style="opacity:1;fill:#9e1213;fill-opacity:1;stroke:none;stroke-width:0.26458332;stroke-miterlimit:4;stroke-dasharray:none;stroke-opacity:1"
       id="circle914"
       cx="340.17859"
       cy="157.52678"
       r="4.1577382" />
    <circle
       style="opacity:1;fill:#ffff99;fill-opacity:1;stroke:none;stroke-width:0.26458332;stroke-miterlimit:4;stroke-dasharray:none;stroke-opacity:1"
       id="circle916"
       cx="54.71722"
       cy="192.03255"
       r="4.1577382" />
    <circle
       r="4.1577382"
       cy="246.90732"
       cx="55.759205"
       id="circle918"
       style="opacity:1;fill:#1f72ab;fill-opacity:1;stroke:none;stroke-width:0.26458332;stroke-miterlimit:4;stroke-dasharray:none;stroke-opacity:1" />
    <circle
       style="opacity:1;fill:#ff7f00;fill-opacity:1;stroke:none;stroke-width:0.26458332;stroke-miterlimit:4;stroke-dasharray:none;stroke-opacity:1"
       id="circle920"
       cx="31.680738"
       cy="213.83778"
       r="4.1577382" />
    <circle
       r="4.1577382"
       cy="134.41171"
       cx="-52.494347"
       id="circle922"
       style="opacity:1;fill:#9e1213;fill-opacity:1;stroke:none;stroke-width:0.26458332;stroke-miterlimit:4;stroke-dasharray:none;stroke-opacity:1" />
    <circle
       style="opacity:1;fill:#9e1213;fill-opacity:1;stroke:none;stroke-width:0.26458332;stroke-miterlimit:4;stroke-dasharray:none;stroke-opacity:1"
       id="circle924"
       cx="343.95834"
       cy="168.86607"
       r="4.1577382" />
    <circle
       style="opacity:1;fill:#9e1213;fill-opacity:1;stroke:none;stroke-width:0.26458332;stroke-miterlimit:4;stroke-dasharray:none;stroke-opacity:1"
       id="circle926"
       cx="320.5238"
       cy="153.36903"
       r="4.1577382" />
    <circle
       r="4.1577382"
       cy="251.24847"
       cx="40.385365"
       id="circle928"
       style="opacity:1;fill:#1f72ab;fill-opacity:1;stroke:none;stroke-width:0.26458332;stroke-miterlimit:4;stroke-dasharray:none;stroke-opacity:1" />
    <circle
       style="opacity:1;fill:#1f72ab;fill-opacity:1;stroke:none;stroke-width:0.26458332;stroke-miterlimit:4;stroke-dasharray:none;stroke-opacity:1"
       id="circle930"
       cx="20.598204"
       cy="252.86322"
       r="4.1577382" />
    <circle
       r="4.1577382"
       cy="269.62848"
       cx="33.65316"
       id="circle1574"
       style="opacity:1;fill:#1f72ab;fill-opacity:1;stroke:none;stroke-width:0.26458332;stroke-miterlimit:4;stroke-dasharray:none;stroke-opacity:1" />
    <circle
       style="opacity:1;fill:#1f72ab;fill-opacity:1;stroke:none;stroke-width:0.26458332;stroke-miterlimit:4;stroke-dasharray:none;stroke-opacity:1"
       id="circle1576"
       cx="68.988373"
       cy="238.9698"
       r="4.1577382" />
    <circle
       r="4.1577382"
       cy="256.15106"
       cx="62.395084"
       id="circle1578"
       style="opacity:1;fill:#1f72ab;fill-opacity:1;stroke:none;stroke-width:0.26458332;stroke-miterlimit:4;stroke-dasharray:none;stroke-opacity:1" />
    <circle
       style="opacity:1;fill:#1f72ab;fill-opacity:1;stroke:none;stroke-width:0.26458332;stroke-miterlimit:4;stroke-dasharray:none;stroke-opacity:1"
       id="circle1580"
       cx="21.363375"
       cy="264.29422"
       r="4.1577382" />
    <circle
       r="4.1577382"
       cy="259.28882"
       cx="51.592247"
       id="circle1584"
       style="opacity:1;fill:#1f72ab;fill-opacity:1;stroke:none;stroke-width:0.26458332;stroke-miterlimit:4;stroke-dasharray:none;stroke-opacity:1" />
    <circle
       r="8.3104439"
       cy="240.09178"
       cx="344.65265"
       id="circle3986"
       style="opacity:0.18000004;fill:#1f72ab;fill-opacity:1;stroke:none;stroke-width:0.26458332;stroke-miterlimit:4;stroke-dasharray:none;stroke-opacity:1" />
    <circle
       style="opacity:0.18000004;fill:#1f72ab;fill-opacity:1;stroke:none;stroke-width:0.26458332;stroke-miterlimit:4;stroke-dasharray:none;stroke-opacity:1"
       id="circle3988"
       cx="379.01654"
       cy="224.14131"
       r="8.3104439" />
    <circle
       r="8.3104439"
       cy="214.66426"
       cx="343.92862"
       id="circle3990"
       style="opacity:0.18000004;fill:#1f72ab;fill-opacity:1;stroke:none;stroke-width:0.26458332;stroke-miterlimit:4;stroke-dasharray:none;stroke-opacity:1" />
    <circle
       style="opacity:0.18000004;fill:#1f72ab;fill-opacity:1;stroke:none;stroke-width:0.26458332;stroke-miterlimit:4;stroke-dasharray:none;stroke-opacity:1"
       id="circle3992"
       cx="354.8407"
       cy="186.36652"
       r="8.3104439" />
    <circle
       style="opacity:0.18000004;fill:#1f72ab;fill-opacity:1;stroke:none;stroke-width:0.26458332;stroke-miterlimit:4;stroke-dasharray:none;stroke-opacity:1"
       id="circle3994"
       cx="371.70779"
       cy="201.84303"
       r="8.3104439" />
    <circle
       r="8.3104439"
       cy="220.93605"
       cx="317.04755"
       id="circle3996"
       style="opacity:0.18000004;fill:#1f72ab;fill-opacity:1;stroke:none;stroke-width:0.26458332;stroke-miterlimit:4;stroke-dasharray:none;stroke-opacity:1" />
    <circle
       style="opacity:0.18000004;fill:#1f72ab;fill-opacity:1;stroke:none;stroke-width:0.26458332;stroke-miterlimit:4;stroke-dasharray:none;stroke-opacity:1"
       id="circle3998"
       cx="344.65265"
       cy="240.09178"
       r="8.3104439" />
    <circle
       r="8.3104439"
       cy="224.14131"
       cx="379.01654"
       id="circle4000"
       style="opacity:0.18000004;fill:#1f72ab;fill-opacity:1;stroke:none;stroke-width:0.26458332;stroke-miterlimit:4;stroke-dasharray:none;stroke-opacity:1" />
    <circle
       style="opacity:0.18000004;fill:#1f72ab;fill-opacity:1;stroke:none;stroke-width:0.26458332;stroke-miterlimit:4;stroke-dasharray:none;stroke-opacity:1"
       id="circle4002"
       cx="343.92862"
       cy="214.66426"
       r="8.3104439" />
    <circle
       r="8.3104439"
       cy="186.36652"
       cx="354.8407"
       id="circle4004"
       style="opacity:0.18000004;fill:#1f72ab;fill-opacity:1;stroke:none;stroke-width:0.26458332;stroke-miterlimit:4;stroke-dasharray:none;stroke-opacity:1" />
    <circle
       r="8.3104439"
       cy="201.84303"
       cx="371.70779"
       id="circle4006"
       style="opacity:0.18000004;fill:#1f72ab;fill-opacity:1;stroke:none;stroke-width:0.26458332;stroke-miterlimit:4;stroke-dasharray:none;stroke-opacity:1" />
    <circle
       style="opacity:0.18000004;fill:#1f72ab;fill-opacity:1;stroke:none;stroke-width:0.26458332;stroke-miterlimit:4;stroke-dasharray:none;stroke-opacity:1"
       id="circle4008"
       cx="317.04755"
       cy="220.93605"
       r="8.3104439" />
    <circle
       style="opacity:1;fill:#ff7f00;fill-opacity:1;stroke:none;stroke-width:0.26458332;stroke-miterlimit:4;stroke-dasharray:none;stroke-opacity:1"
       id="circle7994"
       cx="33.062717"
       cy="199.06129"
       r="4.1577382" />
    <circle
       r="4.1577382"
       cy="219.84999"
       cx="61.410931"
       id="circle7996"
       style="opacity:1;fill:#ff7f00;fill-opacity:1;stroke:none;stroke-width:0.26458332;stroke-miterlimit:4;stroke-dasharray:none;stroke-opacity:1" />
    <circle
       style="opacity:1;fill:#ff7f00;fill-opacity:1;stroke:none;stroke-width:0.26458332;stroke-miterlimit:4;stroke-dasharray:none;stroke-opacity:1"
       id="circle7998"
       cx="22.125027"
       cy="206.95152"
       r="4.1577382" />
    <circle
       r="4.1577382"
       cy="233.45712"
       cx="49.126701"
       id="circle8000"
       style="opacity:1;fill:#ff7f00;fill-opacity:1;stroke:none;stroke-width:0.26458332;stroke-miterlimit:4;stroke-dasharray:none;stroke-opacity:1" />
    <circle
       r="4.1577382"
       cy="187.11885"
       cx="78.151749"
       id="circle8002"
       style="opacity:1;fill:#ffff99;fill-opacity:1;stroke:none;stroke-width:0.26458332;stroke-miterlimit:4;stroke-dasharray:none;stroke-opacity:1" />
    <circle
       style="opacity:1;fill:#ffff99;fill-opacity:1;stroke:none;stroke-width:0.26458332;stroke-miterlimit:4;stroke-dasharray:none;stroke-opacity:1"
       id="circle8195"
       cx="102.19881"
       cy="198.27197"
       r="4.1577382" />
    <circle
       r="4.1577382"
       cy="208.85532"
       cx="110.89228"
       id="circle8197"
       style="opacity:1;fill:#ffff99;fill-opacity:1;stroke:none;stroke-width:0.26458332;stroke-miterlimit:4;stroke-dasharray:none;stroke-opacity:1" />
    <circle
       style="opacity:1;fill:#ffff99;fill-opacity:1;stroke:none;stroke-width:0.26458332;stroke-miterlimit:4;stroke-dasharray:none;stroke-opacity:1"
       id="circle8199"
       cx="99.930954"
       cy="182.01898"
       r="4.1577382" />
    <circle
       r="4.1577382"
       cy="195.24814"
       cx="87.457741"
       id="circle8201"
       style="opacity:1;fill:#ffff99;fill-opacity:1;stroke:none;stroke-width:0.26458332;stroke-miterlimit:4;stroke-dasharray:none;stroke-opacity:1" />
    <circle
       style="opacity:1;fill:#ffff99;fill-opacity:1;stroke:none;stroke-width:0.26458332;stroke-miterlimit:4;stroke-dasharray:none;stroke-opacity:1"
       id="circle8203"
       cx="110.89227"
       cy="190.33444"
       r="4.1577382" />
    <circle
       r="4.1577382"
       cy="226.04295"
       cx="94.013687"
       id="circle8205"
       style="opacity:1;fill:#ffff99;fill-opacity:1;stroke:none;stroke-width:0.26458332;stroke-miterlimit:4;stroke-dasharray:none;stroke-opacity:1" />
    <circle
       style="opacity:1;fill:#ffff99;fill-opacity:1;stroke:none;stroke-width:0.26458332;stroke-miterlimit:4;stroke-dasharray:none;stroke-opacity:1"
       id="circle8207"
       cx="102.70715"
       cy="236.6263"
       r="4.1577382" />
    <circle
       r="4.1577382"
       cy="209.78996"
       cx="91.745827"
       id="circle8209"
       style="opacity:1;fill:#ffff99;fill-opacity:1;stroke:none;stroke-width:0.26458332;stroke-miterlimit:4;stroke-dasharray:none;stroke-opacity:1" />
    <circle
       style="opacity:1;fill:#ffff99;fill-opacity:1;stroke:none;stroke-width:0.26458332;stroke-miterlimit:4;stroke-dasharray:none;stroke-opacity:1"
       id="circle8211"
       cx="79.272614"
       cy="223.01912"
       r="4.1577382" />
    <circle
       r="4.1577382"
       cy="218.10542"
       cx="102.70713"
       id="circle8213"
       style="opacity:1;fill:#ffff99;fill-opacity:1;stroke:none;stroke-width:0.26458332;stroke-miterlimit:4;stroke-dasharray:none;stroke-opacity:1" />
    <circle
       style="opacity:1;fill:#9e1213;fill-opacity:1;stroke:none;stroke-width:0.26458332;stroke-miterlimit:4;stroke-dasharray:none;stroke-opacity:1"
       id="circle8215"
       cx="-21.086868"
       cy="111.67409"
       r="4.1577382" />
    <circle
       style="opacity:1;fill:#9e1213;fill-opacity:1;stroke:none;stroke-width:0.26458332;stroke-miterlimit:4;stroke-dasharray:none;stroke-opacity:1"
       id="circle8217"
       cx="-31.823769"
       cy="133.5849"
       r="4.1577382" />
    <circle
       r="4.1577382"
       cy="110.43387"
       cx="-28.114861"
       id="circle8219"
       style="opacity:1;fill:#9e1213;fill-opacity:1;stroke:none;stroke-width:0.26458332;stroke-miterlimit:4;stroke-dasharray:none;stroke-opacity:1" />
    <circle
       r="4.1577382"
       cy="120.35571"
       cx="-45.879753"
       id="circle8221"
       style="opacity:1;fill:#9e1213;fill-opacity:1;stroke:none;stroke-width:0.26458332;stroke-miterlimit:4;stroke-dasharray:none;stroke-opacity:1" />
    <path
       sodipodi:type="star"
       style="opacity:1;fill:#ffffff;fill-opacity:0.22279795;stroke:#e2e2e2;stroke-width:2.3812499;stroke-miterlimit:4;stroke-dasharray:none;stroke-opacity:1"
       id="path8223"
       sodipodi:sides="3"
       sodipodi:cx="235.57838"
       sodipodi:cy="158.72952"
       sodipodi:r1="72.789772"
       sodipodi:r2="36.394886"
       sodipodi:arg1="-1.5707963"
       sodipodi:arg2="-0.52359878"
       inkscape:flatsided="false"
       inkscape:rounded="0"
       inkscape:randomized="0"
       d="m 235.57839,85.939751 31.51889,54.592329 31.5189,54.59233 -63.0378,0 -63.03779,0 31.5189,-54.59233 z"
       inkscape:transform-center-y="-18.197445" />
    <circle
       style="opacity:1;fill:#1f72ab;fill-opacity:1;stroke:none;stroke-width:0.26458332;stroke-miterlimit:4;stroke-dasharray:none;stroke-opacity:1"
       id="circle8225"
       cx="64.334541"
       cy="268.10944"
       r="4.1577382" />
    <circle
       style="opacity:1;fill:#1f72ab;fill-opacity:1;stroke:none;stroke-width:0.26458332;stroke-miterlimit:4;stroke-dasharray:none;stroke-opacity:1"
       id="circle8227"
       cx="68.182846"
       cy="248.70967"
       r="4.1577382" />
    <circle
       style="opacity:1;fill:#1f72ab;fill-opacity:1;stroke:none;stroke-width:0.26458332;stroke-miterlimit:4;stroke-dasharray:none;stroke-opacity:1"
       id="circle8229"
       cx="72.262817"
       cy="259.70224"
       r="4.1577382" />
    <circle
       style="opacity:1;fill:#ffff99;fill-opacity:1;stroke:none;stroke-width:0.26458332;stroke-miterlimit:4;stroke-dasharray:none;stroke-opacity:1"
       id="circle8231"
       cx="103.03747"
       cy="250.60986"
       r="4.1577382" />
    <circle
       style="opacity:1;fill:#ffff99;fill-opacity:1;stroke:none;stroke-width:0.26458332;stroke-miterlimit:4;stroke-dasharray:none;stroke-opacity:1"
       id="circle8233"
       cx="84.091812"
       cy="252.50128"
       r="4.1577382" />
    <circle
       r="4.1577382"
       cy="263.08463"
       cx="92.785278"
       id="circle8235"
       style="opacity:1;fill:#ffff99;fill-opacity:1;stroke:none;stroke-width:0.26458332;stroke-miterlimit:4;stroke-dasharray:none;stroke-opacity:1" />
    <circle
       style="opacity:1;fill:#ffff99;fill-opacity:1;stroke:none;stroke-width:0.26458332;stroke-miterlimit:4;stroke-dasharray:none;stroke-opacity:1"
       id="circle8237"
       cx="81.823952"
       cy="236.24829"
       r="4.1577382" />
    <circle
       style="opacity:1;fill:#ffff99;fill-opacity:1;stroke:none;stroke-width:0.26458332;stroke-miterlimit:4;stroke-dasharray:none;stroke-opacity:1"
       id="circle8239"
       cx="92.785255"
       cy="244.56375"
       r="4.1577382" />
    <circle
       style="opacity:1;fill:#1f72ab;fill-opacity:1;stroke:none;stroke-width:0.26458332;stroke-miterlimit:4;stroke-dasharray:none;stroke-opacity:1"
       id="circle8241"
       cx="98.64769"
       cy="274.31061"
       r="4.1577382" />
    <circle
       style="opacity:1;fill:#1f72ab;fill-opacity:1;stroke:none;stroke-width:0.26458332;stroke-miterlimit:4;stroke-dasharray:none;stroke-opacity:1"
       id="circle8243"
       cx="55.268177"
       cy="269.02518"
       r="4.1577382" />
    <circle
       style="opacity:1;fill:#1f72ab;fill-opacity:1;stroke:none;stroke-width:0.26458332;stroke-miterlimit:4;stroke-dasharray:none;stroke-opacity:1"
       id="circle8245"
       cx="88.636887"
       cy="276.24307"
       r="4.1577382" />
    <circle
       style="opacity:1;fill:#1f72ab;fill-opacity:1;stroke:none;stroke-width:0.26458332;stroke-miterlimit:4;stroke-dasharray:none;stroke-opacity:1"
       id="circle8247"
       cx="77.277901"
       cy="273.92776"
       r="4.1577382" />
    <circle
       style="opacity:1;fill:#1f72ab;fill-opacity:1;stroke:none;stroke-width:0.26458332;stroke-miterlimit:4;stroke-dasharray:none;stroke-opacity:1"
       id="circle8249"
       cx="66.47506"
       cy="277.06552"
       r="4.1577382" />
    <circle
       r="4.1577382"
       cy="285.88614"
       cx="79.217354"
       id="circle8251"
       style="opacity:1;fill:#1f72ab;fill-opacity:1;stroke:none;stroke-width:0.26458332;stroke-miterlimit:4;stroke-dasharray:none;stroke-opacity:1" />
    <circle
       style="opacity:1;fill:#ff7f00;fill-opacity:1;stroke:none;stroke-width:0.26458332;stroke-miterlimit:4;stroke-dasharray:none;stroke-opacity:1"
       id="circle8253"
       cx="36.027458"
       cy="233.31537"
       r="4.1577382" />
    <circle
       r="4.1577382"
       cy="222.51942"
       cx="25.479568"
       id="circle8255"
       style="opacity:1;fill:#ff7f00;fill-opacity:1;stroke:none;stroke-width:0.26458332;stroke-miterlimit:4;stroke-dasharray:none;stroke-opacity:1" />
    <circle
       r="4.1577382"
       cy="234.65009"
       cx="25.018908"
       id="circle8257"
       style="opacity:1;fill:#ff7f00;fill-opacity:1;stroke:none;stroke-width:0.26458332;stroke-miterlimit:4;stroke-dasharray:none;stroke-opacity:1" />
    <circle
       style="opacity:1;fill:#ff7f00;fill-opacity:1;stroke:none;stroke-width:0.26458332;stroke-miterlimit:4;stroke-dasharray:none;stroke-opacity:1"
       id="circle8259"
       cx="58.517052"
       cy="231.42551"
       r="4.1577382" />
    <circle
       r="4.1577382"
       cy="187.6039"
       cx="43.220829"
       id="circle8261"
       style="opacity:1;fill:#ff7f00;fill-opacity:1;stroke:none;stroke-width:0.26458332;stroke-miterlimit:4;stroke-dasharray:none;stroke-opacity:1" />
    <rect
       style="opacity:1;fill:none;fill-opacity:0.22279795;stroke:#e2e2e2;stroke-width:2.3812499;stroke-miterlimit:4;stroke-dasharray:none;stroke-opacity:1"
       id="rect8263"
       width="133.08542"
       height="133.08542"
       x="1.190629"
       y="162.19479"
       ry="11.46967" />
    <rect
       ry="14.668151"
       y="318.76196"
       x="0.13228963"
       height="135.20207"
       width="135.20209"
       id="rect8265"
       style="opacity:1;fill:#242424;fill-opacity:1;stroke:none;stroke-width:0.26458338;stroke-miterlimit:4;stroke-dasharray:none;stroke-opacity:1" />
    <circle
       r="4.1577382"
       cy="388.69098"
       cx="-139.69617"
       id="circle8269"
       style="opacity:1;fill:#1f72ab;fill-opacity:1;stroke:none;stroke-width:0.26458332;stroke-miterlimit:4;stroke-dasharray:none;stroke-opacity:1" />
    <circle
       style="opacity:1;fill:#1f72ab;fill-opacity:1;stroke:none;stroke-width:0.26458332;stroke-miterlimit:4;stroke-dasharray:none;stroke-opacity:1"
       id="circle8275"
       cx="-126.66155"
       cy="399.98767"
       r="4.1577382" />
    <circle
       r="4.1577382"
       cy="375.96951"
       cx="-140.05841"
       id="circle8281"
       style="opacity:1;fill:#1f72ab;fill-opacity:1;stroke:none;stroke-width:0.26458332;stroke-miterlimit:4;stroke-dasharray:none;stroke-opacity:1" />
    <circle
       r="4.1577382"
       cy="324.32422"
       cx="-115.6083"
       id="circle8285"
       style="opacity:1;fill:#ffff99;fill-opacity:1;stroke:none;stroke-width:0.26458332;stroke-miterlimit:4;stroke-dasharray:none;stroke-opacity:1" />
    <circle
       style="opacity:1;fill:#1f72ab;fill-opacity:1;stroke:none;stroke-width:0.26458332;stroke-miterlimit:4;stroke-dasharray:none;stroke-opacity:1"
       id="circle8287"
       cx="-114.56631"
       cy="379.19897"
       r="4.1577382" />
    <circle
       style="opacity:1;fill:#1f72ab;fill-opacity:1;stroke:none;stroke-width:0.26458332;stroke-miterlimit:4;stroke-dasharray:none;stroke-opacity:1"
       id="circle8291"
       cx="-129.94016"
       cy="383.54013"
       r="4.1577382" />
    <circle
       r="4.1577382"
       cy="385.15488"
       cx="-149.72731"
       id="circle8293"
       style="opacity:1;fill:#1f72ab;fill-opacity:1;stroke:none;stroke-width:0.26458332;stroke-miterlimit:4;stroke-dasharray:none;stroke-opacity:1" />
    <circle
       style="opacity:1;fill:#1f72ab;fill-opacity:1;stroke:none;stroke-width:0.26458332;stroke-miterlimit:4;stroke-dasharray:none;stroke-opacity:1"
       id="circle8295"
       cx="-136.67236"
       cy="401.92014"
       r="4.1577382" />
    <circle
       r="4.1577382"
       cy="396.58588"
       cx="-148.96214"
       id="circle8301"
       style="opacity:1;fill:#1f72ab;fill-opacity:1;stroke:none;stroke-width:0.26458332;stroke-miterlimit:4;stroke-dasharray:none;stroke-opacity:1" />
    <circle
       style="opacity:1;fill:#1f72ab;fill-opacity:1;stroke:none;stroke-width:0.26458332;stroke-miterlimit:4;stroke-dasharray:none;stroke-opacity:1"
       id="circle8303"
       cx="-118.73328"
       cy="391.58047"
       r="4.1577382" />
    <circle
       style="opacity:1;fill:#ff7f00;fill-opacity:1;stroke:none;stroke-width:0.26458332;stroke-miterlimit:4;stroke-dasharray:none;stroke-opacity:1"
       id="circle8311"
       cx="-121.19882"
       cy="365.74878"
       r="4.1577382" />
    <circle
       style="opacity:1;fill:#ffff99;fill-opacity:1;stroke:none;stroke-width:0.26458332;stroke-miterlimit:4;stroke-dasharray:none;stroke-opacity:1"
       id="circle8317"
       cx="-59.433239"
       cy="341.14697"
       r="4.1577382" />
    <circle
       r="4.1577382"
       cy="322.6261"
       cx="-59.433247"
       id="circle8323"
       style="opacity:1;fill:#ffff99;fill-opacity:1;stroke:none;stroke-width:0.26458332;stroke-miterlimit:4;stroke-dasharray:none;stroke-opacity:1" />
    <circle
       r="4.1577382"
       cy="368.91797"
       cx="-67.61837"
       id="circle8327"
       style="opacity:1;fill:#ffff99;fill-opacity:1;stroke:none;stroke-width:0.26458332;stroke-miterlimit:4;stroke-dasharray:none;stroke-opacity:1" />
    <circle
       style="opacity:1;fill:#ffff99;fill-opacity:1;stroke:none;stroke-width:0.26458332;stroke-miterlimit:4;stroke-dasharray:none;stroke-opacity:1"
       id="circle8333"
       cx="-67.618393"
       cy="350.39709"
       r="4.1577382" />
    <circle
       r="4.1577382"
       cy="382.90152"
       cx="-67.288055"
       id="circle8341"
       style="opacity:1;fill:#ffff99;fill-opacity:1;stroke:none;stroke-width:0.26458332;stroke-miterlimit:4;stroke-dasharray:none;stroke-opacity:1" />
    <circle
       r="4.1577382"
       cy="401.31683"
       cx="-115.05734"
       id="circle8353"
       style="opacity:1;fill:#1f72ab;fill-opacity:1;stroke:none;stroke-width:0.26458332;stroke-miterlimit:4;stroke-dasharray:none;stroke-opacity:1" />
    <path
       style="fill:none;fill-rule:evenodd;stroke:#e2e2e2;stroke-width:2.3812499;stroke-linecap:butt;stroke-linejoin:miter;stroke-miterlimit:4;stroke-dasharray:none;stroke-opacity:1"
       d="m 20.636704,373.49964 62.429501,-28.22277 28.261975,81.00695 -34.055355,1.38779 z"
       id="path934"
       inkscape:connector-curvature="0"
       sodipodi:nodetypes="ccccc" />
    <circle
       r="13.046084"
       cy="371.60144"
       cx="23.831821"
       id="circle8363"
       style="opacity:1;fill:#ff7f00;fill-opacity:1;stroke:none;stroke-width:0.26458332;stroke-miterlimit:4;stroke-dasharray:none;stroke-opacity:1" />
    <circle
       style="opacity:1;fill:#ff7f00;fill-opacity:1;stroke:none;stroke-width:0.26458332;stroke-miterlimit:4;stroke-dasharray:none;stroke-opacity:1"
       id="circle8367"
       cx="-61.38409"
       cy="395.05371"
       r="4.1577382" />
    <circle
       style="opacity:1;fill:#ff7f00;fill-opacity:1;stroke:none;stroke-width:0.26458332;stroke-miterlimit:4;stroke-dasharray:none;stroke-opacity:1"
       id="circle8371"
       cx="-127.10469"
       cy="319.89557"
       r="4.1577382" />
    <rect
       ry="11.46967"
       y="319.70456"
       x="1.190629"
       height="133.08542"
       width="133.08542"
       id="rect8373"
       style="opacity:1;fill:none;fill-opacity:0.22279795;stroke:#e2e2e2;stroke-width:2.3812499;stroke-miterlimit:4;stroke-dasharray:none;stroke-opacity:1" />
    <circle
       style="opacity:1;fill:#ff7f00;fill-opacity:1;stroke:none;stroke-width:0.26458332;stroke-miterlimit:4;stroke-dasharray:none;stroke-opacity:1"
       id="circle8375"
       cx="30.859818"
       cy="400.54028"
       r="13.046084" />
    <circle
       r="13.046084"
       cy="380.28311"
       cx="49.876747"
       id="circle8377"
       style="opacity:1;fill:#ff7f00;fill-opacity:1;stroke:none;stroke-width:0.26458332;stroke-miterlimit:4;stroke-dasharray:none;stroke-opacity:1" />
    <circle
       r="13.046084"
       cy="423.69128"
       cx="107.75435"
       id="circle8379"
       style="opacity:1;fill:#1f72ab;fill-opacity:1;stroke:none;stroke-width:0.26458332;stroke-miterlimit:4;stroke-dasharray:none;stroke-opacity:1" />
    <circle
       style="opacity:1;fill:#1f72ab;fill-opacity:1;stroke:none;stroke-width:0.26458332;stroke-miterlimit:4;stroke-dasharray:none;stroke-opacity:1"
       id="circle8381"
       cx="75.094841"
       cy="426.17178"
       r="13.046084" />
    <circle
       r="13.046084"
       cy="398.47321"
       cx="90.804482"
       id="circle8383"
       style="opacity:1;fill:#1f72ab;fill-opacity:1;stroke:none;stroke-width:0.26458332;stroke-miterlimit:4;stroke-dasharray:none;stroke-opacity:1" />
    <circle
       r="13.046084"
       cy="346.79678"
       cx="82.122841"
       id="circle8385"
       style="opacity:1;fill:#ffff99;fill-opacity:1;stroke:none;stroke-width:0.26458332;stroke-miterlimit:4;stroke-dasharray:none;stroke-opacity:1" />
    <circle
       style="opacity:1;fill:#ffff99;fill-opacity:1;stroke:none;stroke-width:0.26458332;stroke-miterlimit:4;stroke-dasharray:none;stroke-opacity:1"
       id="circle8387"
       cx="106.92752"
       cy="366.22714"
       r="13.046084" />
  </g>
</svg>
